{
  "main.css": "/static/css/main.5b7e61c0.chunk.css",
  "main.js": "/static/js/main.7fd55ddd.chunk.js",
  "main.js.map": "/static/js/main.7fd55ddd.chunk.js.map",
  "runtime~main.js": "/static/js/runtime~main.a8a9905a.js",
  "runtime~main.js.map": "/static/js/runtime~main.a8a9905a.js.map",
  "static/css/2.2177326b.chunk.css": "/static/css/2.2177326b.chunk.css",
  "static/js/2.3e0dbf79.chunk.js": "/static/js/2.3e0dbf79.chunk.js",
  "static/js/2.3e0dbf79.chunk.js.map": "/static/js/2.3e0dbf79.chunk.js.map",
  "index.html": "/index.html",
  "precache-manifest.bd80bb6c5b3fae1f2737af141c377c2c.js": "/precache-manifest.bd80bb6c5b3fae1f2737af141c377c2c.js",
  "service-worker.js": "/service-worker.js",
  "static/css/2.2177326b.chunk.css.map": "/static/css/2.2177326b.chunk.css.map",
  "static/css/main.5b7e61c0.chunk.css.map": "/static/css/main.5b7e61c0.chunk.css.map",
  "static/media/custom.css": "/static/media/sprite_char.88f68fdf.png",
  "static/media/loader.gif": "/static/media/loader.0084d7bd.gif"
}