{
  "main.css": "/static/css/main.d8d5abc2.chunk.css",
  "main.js": "/static/js/main.6ca62201.chunk.js",
  "main.js.map": "/static/js/main.6ca62201.chunk.js.map",
  "runtime~main.js": "/static/js/runtime~main.a8a9905a.js",
  "runtime~main.js.map": "/static/js/runtime~main.a8a9905a.js.map",
  "static/css/2.2177326b.chunk.css": "/static/css/2.2177326b.chunk.css",
  "static/js/2.4551df92.chunk.js": "/static/js/2.4551df92.chunk.js",
  "static/js/2.4551df92.chunk.js.map": "/static/js/2.4551df92.chunk.js.map",
  "index.html": "/index.html",
  "precache-manifest.5dfd79105eb7a2572138995dea81f73d.js": "/precache-manifest.5dfd79105eb7a2572138995dea81f73d.js",
  "service-worker.js": "/service-worker.js",
  "static/css/2.2177326b.chunk.css.map": "/static/css/2.2177326b.chunk.css.map",
  "static/css/main.d8d5abc2.chunk.css.map": "/static/css/main.d8d5abc2.chunk.css.map",
  "static/media/custom.css": "/static/media/sprite_char.88f68fdf.png",
  "static/media/loader.gif": "/static/media/loader.0084d7bd.gif"
}